# pianeta, massa (kg), raggio medio (m), periodo (s), distanza media dal sole (m)
Mercurio,3.30e23,2.44e6,7.69e6,5.79e10
Venere,4.87e24,6.05e6,1.94e7,1.08e11
Terra,5.97e24,6.37e6,3.156e7,1.496e11
Marte,6.42e23,3.33e6,5.94e7,2.28e11
Giove,1.90e27,6.99e7,3.74e8,7.78e11
Saturno,5.68e26,5.82e7,9.29e8,1.43e12
Urano,8.68e25,2.54e7,2.65e9,2.87e12
Nettuno,1.02e26,2.46e7,5.18e9,4.50e12
Plutone,1.25e22,1.290e6,7.82e9,5.91e12
