Temperature (K)	Pressure (MPa)	Density (l, mol/l)	Volume (l, l/mol)	Internal Energy (l, kJ/mol)	Enthalpy (l, kJ/mol)	Entropy (l, J/mol*K)	Cv (l, J/mol*K)	Cp (l, J/mol*K)	Sound Spd. (l, m/s)	Joule-Thomson (l, K/MPa)	Viscosity (l, uPa*s)	Therm. Cond. (l, W/m*K)	Surf. Tension (l, N/m)	Density (v, mol/l)	Volume (v, l/mol)	Internal Energy (v, kJ/mol)	Enthalpy (v, kJ/mol)	Entropy (v, J/mol*K)	Cv (v, J/mol*K)	Cp (v, J/mol*K)	Sound Spd. (v, m/s)	Joule-Thomson (v, K/MPa)	Viscosity (v, uPa*s)	Therm. Cond. (v, W/m*K)
318.96	0.010000	54.944	0.018200	3.4553	3.4554	11.695	72.900	75.313	1537.4	-0.20864	587.64	0.63838	0.068643	0.0037838	264.29	43.906	46.549	146.80	26.329	34.950	440.51	165.03	10.486	0.020037
378.00	0.12027	53.000	0.018868	7.9178	7.9201	24.531	67.432	76.052	1538.6	-0.17527	268.01	0.68050	0.057972	0.038943	25.678	45.249	48.338	131.46	28.268	37.842	474.63	62.856	12.435	0.025644
397.91	0.23054	52.135	0.019181	9.4366	9.4411	28.446	65.623	76.596	1512.8	-0.16237	222.54	0.68355	0.054004	0.071593	13.968	45.651	48.871	127.54	29.461	39.728	483.80	50.271	13.120	0.028075
411.08	0.34081	51.510	0.019414	10.447	10.454	30.945	64.479	77.068	1490.2	-0.15285	199.73	0.68345	0.051290	0.10328	9.6821	45.895	49.195	125.19	30.457	41.347	489.05	43.930	13.575	0.029848
421.14	0.45108	51.005	0.019606	11.224	11.233	32.812	63.637	77.499	1470.1	-0.14487	185.13	0.68236	0.049169	0.13441	7.4397	46.069	49.425	123.50	31.335	42.810	492.61	39.793	13.923	0.031297
429.39	0.56135	50.573	0.019773	11.864	11.875	34.317	62.969	77.903	1452.0	-0.13782	174.64	0.68084	0.047403	0.16518	6.0542	46.202	49.600	122.17	32.126	44.163	495.21	36.762	14.207	0.032544
436.43	0.67162	50.192	0.019924	12.413	12.426	35.585	62.415	78.286	1435.4	-0.13137	166.57	0.67909	0.045877	0.19568	5.1104	46.308	49.740	121.08	32.851	45.431	497.20	34.391	14.450	0.033653
442.61	0.78189	49.847	0.020061	12.896	12.912	36.685	61.941	78.654	1419.9	-0.12535	160.09	0.67723	0.044525	0.22599	4.4249	46.395	49.855	120.15	33.521	46.631	498.76	32.458	14.663	0.034658
448.13	0.89216	49.530	0.020190	13.330	13.348	37.660	61.528	79.009	1405.4	-0.11967	154.72	0.67530	0.043307	0.25617	3.9036	46.468	49.951	119.34	34.145	47.774	500.02	30.836	14.853	0.035584
453.13	1.0024	49.237	0.020310	13.725	13.745	38.536	61.162	79.355	1391.8	-0.11424	150.15	0.67333	0.042194	0.28626	3.4934	46.530	50.032	118.62	34.730	48.870	501.04	29.445	15.025	0.036446
457.72	1.1127	48.962	0.020424	14.088	14.111	39.335	60.833	79.694	1378.8	-0.10901	146.20	0.67134	0.041167	0.31627	3.1619	46.583	50.102	117.96	35.282	49.926	501.87	28.233	15.183	0.037255
461.97	1.2230	48.703	0.020533	14.426	14.451	40.069	60.534	80.025	1366.4	-0.10394	142.72	0.66934	0.040213	0.34624	2.8882	46.629	50.162	117.37	35.804	50.947	502.55	27.163	15.329	0.038019
465.92	1.3332	48.457	0.020637	14.741	14.769	40.749	60.261	80.351	1354.5	-0.099010	139.63	0.66734	0.039319	0.37618	2.6583	46.670	50.214	116.82	36.300	51.939	503.11	26.209	15.465	0.038746
469.62	1.4435	48.223	0.020737	15.038	15.068	41.384	60.009	80.673	1343.1	-0.094193	136.86	0.66533	0.038478	0.40611	2.4624	46.704	50.259	116.32	36.773	52.905	503.56	25.350	15.593	0.039440
473.11	1.5538	47.998	0.020834	15.319	15.351	41.979	59.776	80.991	1332.2	-0.089469	134.34	0.66334	0.037683	0.43604	2.2934	46.735	50.298	115.85	37.225	53.848	503.92	24.572	15.714	0.040106
476.42	1.6641	47.783	0.020928	15.585	15.620	42.540	59.559	81.305	1321.6	-0.084826	132.05	0.66134	0.036927	0.46599	2.1460	46.762	50.333	115.40	37.659	54.771	504.21	23.861	15.828	0.040747
479.55	1.7743	47.575	0.021019	15.839	15.876	43.072	59.356	81.617	1311.3	-0.080250	129.94	0.65936	0.036208	0.49595	2.0163	46.785	50.363	114.99	38.077	55.678	504.43	23.209	15.936	0.041366
482.54	1.8846	47.374	0.021109	16.081	16.121	43.576	59.165	81.927	1301.3	-0.075732	127.99	0.65738	0.035521	0.52596	1.9013	46.805	50.389	114.59	38.479	56.569	504.59	22.607	16.040	0.041965
485.40	1.9949	47.180	0.021195	16.314	16.356	44.057	58.986	82.234	1291.6	-0.071262	126.18	0.65541	0.034862	0.55600	1.7986	46.823	50.411	114.22	38.868	57.447	504.70	22.050	16.140	0.042546
488.13	2.1051	46.991	0.021281	16.537	16.582	44.517	58.816	82.541	1282.2	-0.066833	124.50	0.65345	0.034230	0.58608	1.7062	46.838	50.430	113.86	39.244	58.313	504.76	21.532	16.235	0.043111
490.76	2.2154	46.808	0.021364	16.753	16.800	44.957	58.656	82.846	1273.0	-0.062439	122.92	0.65149	0.033621	0.61622	1.6228	46.852	50.447	113.52	39.609	59.169	504.78	21.049	16.327	0.043662
493.29	2.3257	46.630	0.021446	16.960	17.010	45.379	58.503	83.151	1264.0	-0.058074	121.44	0.64954	0.033035	0.64642	1.5470	46.863	50.461	113.19	39.963	60.017	504.77	20.596	16.416	0.044199
495.72	2.4359	46.455	0.021526	17.161	17.214	45.786	58.358	83.454	1255.2	-0.053733	120.04	0.64761	0.032468	0.67669	1.4778	46.872	50.472	112.88	40.308	60.857	504.72	20.171	16.501	0.044725
498.08	2.5462	46.285	0.021605	17.356	17.411	46.178	58.220	83.758	1246.7	-0.049412	118.72	0.64567	0.031921	0.70702	1.4144	46.880	50.481	112.57	40.644	61.690	504.64	19.770	16.584	0.045240
500.35	2.6565	46.119	0.021683	17.545	17.602	46.557	58.088	84.061	1238.2	-0.045107	117.47	0.64375	0.031390	0.73742	1.3561	46.886	50.488	112.28	40.971	62.518	504.53	19.392	16.665	0.045745
502.56	2.7668	45.956	0.021760	17.728	17.788	46.923	57.962	84.364	1230.0	-0.040814	116.28	0.64183	0.030875	0.76790	1.3022	46.891	50.494	112.00	41.291	63.341	504.39	19.035	16.743	0.046240
504.69	2.8770	45.797	0.021836	17.906	17.969	47.277	57.841	84.668	1221.9	-0.036529	115.15	0.63992	0.030376	0.79847	1.2524	46.894	50.497	111.73	41.603	64.160	504.23	18.696	16.820	0.046728
506.77	2.9873	45.640	0.021910	18.080	18.146	47.621	57.726	84.972	1214.0	-0.032251	114.07	0.63802	0.029890	0.82912	1.2061	46.896	50.499	111.46	41.909	64.976	504.05	18.374	16.894	0.047208
508.78	3.0976	45.487	0.021984	18.249	18.318	47.955	57.615	85.276	1206.2	-0.027976	113.03	0.63612	0.029418	0.85986	1.1630	46.898	50.500	111.21	42.209	65.789	503.85	18.068	16.967	0.047681
510.75	3.2078	45.336	0.022058	18.415	18.485	48.280	57.508	85.581	1198.5	-0.023702	112.04	0.63423	0.028958	0.89069	1.1227	46.897	50.499	110.96	42.503	66.601	503.62	17.776	17.038	0.048148
512.66	3.3181	45.187	0.022130	18.576	18.649	48.596	57.405	85.887	1191.0	-0.019426	111.09	0.63234	0.028509	0.92161	1.0851	46.896	50.497	110.72	42.791	67.411	503.38	17.497	17.107	0.048608
514.52	3.4284	45.041	0.022202	18.734	18.810	48.903	57.307	86.194	1183.6	-0.015147	110.18	0.63046	0.028072	0.95264	1.0497	46.894	50.493	110.48	43.074	68.221	503.13	17.230	17.175	0.049064
516.34	3.5386	44.897	0.022273	18.888	18.967	49.203	57.211	86.502	1176.3	-0.010862	109.30	0.62858	0.027645	0.98376	1.0165	46.892	50.489	110.25	43.353	69.031	502.85	16.975	17.242	0.049515
518.11	3.6489	44.755	0.022344	19.039	19.121	49.496	57.120	86.811	1169.0	-0.0065700	108.46	0.62671	0.027228	1.0150	0.98523	46.888	50.483	110.03	43.627	69.841	502.56	16.730	17.307	0.049961
519.85	3.7592	44.615	0.022414	19.188	19.272	49.782	57.031	87.121	1161.9	-0.0022684	107.64	0.62485	0.026820	1.0463	0.95572	46.883	50.476	109.81	43.897	70.651	502.26	16.495	17.371	0.050403
521.54	3.8694	44.477	0.022483	19.333	19.420	50.061	56.945	87.433	1154.9	0.0020441	106.85	0.62299	0.026421	1.0778	0.92783	46.878	50.468	109.59	44.162	71.464	501.94	16.269	17.434	0.050842
523.20	3.9797	44.341	0.022552	19.475	19.565	50.335	56.863	87.747	1148.0	0.0063692	106.09	0.62113	0.026031	1.1093	0.90143	46.872	50.459	109.38	44.424	72.277	501.61	16.052	17.497	0.051277
524.83	4.0900	44.206	0.022621	19.615	19.708	50.602	56.783	88.062	1141.2	0.010708	105.35	0.61928	0.025648	1.1410	0.87641	46.865	50.450	109.18	44.683	73.093	501.27	15.842	17.558	0.051709
526.42	4.2003	44.074	0.022689	19.753	19.848	50.864	56.706	88.379	1134.5	0.015063	104.63	0.61743	0.025274	1.1728	0.85265	46.858	50.439	108.98	44.938	73.911	500.92	15.640	17.618	0.052139
527.98	4.3105	43.942	0.022757	19.888	19.986	51.121	56.631	88.698	1127.8	0.019435	103.94	0.61559	0.024907	1.2047	0.83006	46.849	50.427	108.78	45.189	74.732	500.55	15.445	17.677	0.052566
529.51	4.4208	43.812	0.022825	20.021	20.121	51.373	56.559	89.019	1121.2	0.023824	103.26	0.61375	0.024547	1.2368	0.80855	46.841	50.415	108.58	45.438	75.557	500.17	15.257	17.736	0.052992
531.01	4.5311	43.684	0.022892	20.151	20.255	51.620	56.489	89.341	1114.7	0.028234	102.61	0.61191	0.024193	1.2689	0.78806	46.831	50.402	108.39	45.684	76.384	499.79	15.075	17.794	0.053415
532.48	4.6413	43.556	0.022959	20.280	20.387	51.863	56.421	89.666	1108.3	0.032664	101.97	0.61008	0.023847	1.3012	0.76850	46.821	50.388	108.21	45.927	77.216	499.39	14.898	17.851	0.053837
533.93	4.7516	43.430	0.023025	20.407	20.516	52.101	56.355	89.994	1101.9	0.037116	101.35	0.60826	0.023506	1.3337	0.74981	46.811	50.374	108.02	46.167	78.052	498.99	14.728	17.907	0.054258
535.35	4.8619	43.305	0.023092	20.531	20.644	52.335	56.292	90.323	1095.6	0.041592	100.74	0.60643	0.023172	1.3662	0.73194	46.800	50.358	107.84	46.405	78.892	498.57	14.562	17.963	0.054678
536.74	4.9721	43.182	0.023158	20.655	20.770	52.565	56.230	90.656	1089.4	0.046092	100.15	0.60461	0.022843	1.3989	0.71483	46.788	50.342	107.66	46.640	79.738	498.15	14.402	18.018	0.055097
538.11	5.0824	43.059	0.023224	20.776	20.894	52.791	56.170	90.990	1083.2	0.050617	99.576	0.60280	0.022521	1.4318	0.69844	46.776	50.326	107.49	46.874	80.588	497.72	14.246	18.073	0.055516
539.46	5.1927	42.937	0.023290	20.895	21.016	53.014	56.112	91.328	1077.1	0.055169	99.014	0.60099	0.022203	1.4647	0.68272	46.764	50.309	107.31	47.105	81.444	497.28	14.094	18.127	0.055934
540.79	5.3030	42.817	0.023355	21.014	21.137	53.233	56.056	91.668	1071.0	0.059749	98.464	0.59918	0.021891	1.4979	0.66762	46.751	50.291	107.14	47.333	82.305	496.83	13.947	18.181	0.056352
542.10	5.4132	42.697	0.023421	21.130	21.257	53.449	56.001	92.011	1065.0	0.064357	97.926	0.59738	0.021583	1.5311	0.65312	46.737	50.272	106.97	47.560	83.173	496.38	13.804	18.234	0.056771
543.39	5.5235	42.579	0.023486	21.245	21.375	53.662	55.949	92.357	1059.1	0.068996	97.400	0.59558	0.021281	1.5645	0.63917	46.723	50.253	106.81	47.785	84.047	495.92	13.665	18.286	0.057189
544.66	5.6338	42.461	0.023551	21.359	21.491	53.871	55.897	92.706	1053.2	0.073665	96.885	0.59378	0.020983	1.5981	0.62574	46.709	50.234	106.64	48.009	84.927	495.45	13.529	18.339	0.057608
545.90	5.7440	42.344	0.023616	21.471	21.607	54.078	55.848	93.058	1047.3	0.078367	96.381	0.59199	0.020690	1.6318	0.61281	46.694	50.214	106.48	48.230	85.815	494.97	13.397	18.391	0.058028
547.14	5.8543	42.228	0.023681	21.582	21.721	54.281	55.799	93.414	1041.5	0.083101	95.886	0.59020	0.020401	1.6657	0.60035	46.679	50.193	106.32	48.450	86.709	494.49	13.268	18.442	0.058449
548.35	5.9646	42.112	0.023746	21.692	21.833	54.482	55.753	93.773	1035.8	0.087870	95.401	0.58842	0.020117	1.6997	0.58833	46.663	50.172	106.16	48.668	87.611	494.00	13.142	18.493	0.058870
549.55	6.0749	41.998	0.023811	21.800	21.945	54.681	55.707	94.135	1030.0	0.092673	94.926	0.58664	0.019836	1.7339	0.57673	46.647	50.150	106.01	48.885	88.521	493.50	13.019	18.544	0.059293
550.72	6.1851	41.884	0.023876	21.907	22.055	54.876	55.663	94.501	1024.4	0.097513	94.459	0.58486	0.019560	1.7683	0.56553	46.630	50.128	105.85	49.100	89.439	493.00	12.899	18.594	0.059718
551.89	6.2954	41.770	0.023940	22.013	22.164	55.070	55.621	94.871	1018.7	0.10239	94.001	0.58309	0.019288	1.8028	0.55470	46.613	50.106	105.70	49.314	90.365	492.49	12.782	18.645	0.060144
553.04	6.4057	41.658	0.024005	22.118	22.272	55.260	55.580	95.244	1013.2	0.10731	93.551	0.58132	0.019019	1.8375	0.54423	46.596	50.082	105.55	49.526	91.300	491.98	12.668	18.695	0.060571
554.17	6.5159	41.546	0.024070	22.222	22.379	55.449	55.540	95.622	1007.6	0.11226	93.108	0.57956	0.018754	1.8723	0.53409	46.579	50.059	105.40	49.738	92.244	491.46	12.556	18.744	0.061001
555.29	6.6262	41.434	0.024135	22.325	22.485	55.635	55.501	96.003	1002.1	0.11725	92.673	0.57780	0.018493	1.9074	0.52428	46.561	50.035	105.25	49.948	93.197	490.93	12.447	18.794	0.061433
556.39	6.7365	41.324	0.024199	22.427	22.590	55.819	55.464	96.388	996.63	0.12229	92.245	0.57605	0.018236	1.9426	0.51478	46.542	50.010	105.10	50.156	94.160	490.40	12.340	18.843	0.061867
557.48	6.8467	41.213	0.024264	22.528	22.694	56.001	55.427	96.778	991.19	0.12737	91.823	0.57430	0.017981	1.9780	0.50557	46.524	49.985	104.95	50.364	95.132	489.86	12.235	18.892	0.062304
558.56	6.9570	41.104	0.024329	22.628	22.797	56.181	55.392	97.172	985.79	0.13249	91.409	0.57256	0.017730	2.0135	0.49664	46.505	49.960	104.81	50.570	96.114	489.32	12.132	18.941	0.062743
559.63	7.0673	40.994	0.024394	22.727	22.899	56.359	55.358	97.571	980.43	0.13766	91.000	0.57082	0.017483	2.0493	0.48797	46.485	49.934	104.67	50.776	97.107	488.77	12.032	18.990	0.063185
560.68	7.1775	40.886	0.024458	22.825	23.001	56.535	55.326	97.974	975.09	0.14287	90.598	0.56909	0.017238	2.0852	0.47956	46.465	49.908	104.52	50.980	98.111	488.22	11.933	19.038	0.063629
561.72	7.2878	40.777	0.024523	22.923	23.101	56.710	55.294	98.382	969.79	0.14813	90.201	0.56736	0.016996	2.1214	0.47140	46.445	49.881	104.38	51.183	99.126	487.66	11.837	19.087	0.064077
562.75	7.3981	40.670	0.024588	23.019	23.201	56.882	55.263	98.795	964.52	0.15343	89.810	0.56564	0.016758	2.1577	0.46346	46.425	49.854	104.24	51.386	100.15	487.10	11.742	19.135	0.064528
563.76	7.5084	40.562	0.024654	23.115	23.300	57.053	55.234	99.212	959.28	0.15879	89.425	0.56392	0.016523	2.1942	0.45575	46.404	49.826	104.10	51.587	101.19	486.53	11.649	19.183	0.064983
564.77	7.6186	40.455	0.024719	23.210	23.398	57.222	55.206	99.635	954.07	0.16419	89.044	0.56221	0.016290	2.2309	0.44824	46.383	49.798	103.97	51.788	102.24	485.96	11.558	19.231	0.065441
565.76	7.7289	40.349	0.024784	23.304	23.495	57.389	55.178	100.06	948.88	0.16965	88.669	0.56050	0.016060	2.2678	0.44095	46.362	49.770	103.83	51.988	103.30	485.38	11.468	19.279	0.065903
566.74	7.8392	40.242	0.024849	23.397	23.592	57.555	55.152	100.50	943.73	0.17516	88.298	0.55880	0.015833	2.3050	0.43385	46.340	49.741	103.69	52.187	104.38	484.80	11.380	19.327	0.066369
567.72	7.9494	40.136	0.024915	23.490	23.688	57.719	55.127	100.94	938.60	0.18072	87.932	0.55711	0.015609	2.3423	0.42693	46.318	49.712	103.56	52.385	105.47	484.21	11.294	19.375	0.066839
568.68	8.0597	40.031	0.024981	23.582	23.783	57.882	55.103	101.38	933.50	0.18633	87.571	0.55542	0.015387	2.3798	0.42020	46.296	49.682	103.42	52.583	106.57	483.62	11.209	19.423	0.067314
569.63	8.1700	39.926	0.025047	23.673	23.878	58.044	55.080	101.83	928.42	0.19201	87.213	0.55374	0.015168	2.4176	0.41363	46.273	49.652	103.29	52.779	107.69	483.03	11.125	19.470	0.067792
570.57	8.2802	39.821	0.025113	23.764	23.972	58.204	55.057	102.29	923.37	0.19773	86.860	0.55207	0.014951	2.4556	0.40724	46.250	49.622	103.16	52.975	108.82	482.43	11.043	19.518	0.068276
571.50	8.3905	39.716	0.025179	23.854	24.065	58.362	55.036	102.75	918.34	0.20352	86.511	0.55040	0.014737	2.4938	0.40100	46.227	49.591	103.03	53.171	109.96	481.82	10.962	19.566	0.068764
572.43	8.5008	39.612	0.025245	23.943	24.158	58.519	55.016	103.22	913.34	0.20937	86.166	0.54873	0.014525	2.5322	0.39491	46.203	49.560	102.90	53.366	111.12	481.21	10.883	19.614	0.069257
573.34	8.6111	39.508	0.025312	24.032	24.250	58.675	54.997	103.70	908.36	0.21527	85.825	0.54708	0.014316	2.5708	0.38898	46.179	49.529	102.77	53.560	112.30	480.60	10.805	19.661	0.069755
574.25	8.7213	39.404	0.025378	24.120	24.342	58.830	54.978	104.18	903.40	0.22124	85.487	0.54543	0.014109	2.6097	0.38318	46.155	49.497	102.64	53.753	113.49	479.98	10.728	19.709	0.070258
575.14	8.8316	39.300	0.025445	24.208	24.433	58.984	54.961	104.67	898.46	0.22727	85.152	0.54379	0.013904	2.6488	0.37752	46.131	49.465	102.51	53.946	114.70	479.36	10.652	19.757	0.070767
576.03	8.9419	39.197	0.025512	24.295	24.523	59.136	54.945	105.16	893.54	0.23336	84.821	0.54215	0.013702	2.6882	0.37200	46.106	49.432	102.38	54.139	115.92	478.73	10.577	19.804	0.071282
576.91	9.0521	39.094	0.025580	24.381	24.613	59.287	54.929	105.67	888.65	0.23953	84.494	0.54052	0.013501	2.7278	0.36660	46.081	49.399	102.25	54.331	117.17	478.10	10.504	19.852	0.071802
577.78	9.1624	38.991	0.025647	24.467	24.702	59.437	54.915	106.18	883.77	0.24575	84.169	0.53890	0.013303	2.7676	0.36132	46.055	49.366	102.12	54.523	118.43	477.47	10.431	19.900	0.072328
578.64	9.2727	38.888	0.025715	24.553	24.791	59.586	54.901	106.70	878.91	0.25205	83.848	0.53729	0.013107	2.8077	0.35616	46.030	49.332	102.00	54.714	119.71	476.83	10.360	19.948	0.072861
579.50	9.3830	38.785	0.025783	24.638	24.880	59.734	54.888	107.22	874.08	0.25842	83.529	0.53568	0.012913	2.8480	0.35112	46.004	49.298	101.87	54.904	121.00	476.18	10.289	19.996	0.073400
580.35	9.4932	38.683	0.025851	24.722	24.968	59.881	54.877	107.76	869.26	0.26485	83.213	0.53408	0.012721	2.8887	0.34618	45.977	49.264	101.74	55.095	122.32	475.54	10.220	20.044	0.073945
581.19	9.6035	38.580	0.025920	24.806	25.055	60.027	54.866	108.30	864.46	0.27136	82.900	0.53249	0.012531	2.9295	0.34135	45.951	49.229	101.62	55.284	123.66	474.88	10.151	20.092	0.074498
582.02	9.7138	38.478	0.025989	24.890	25.142	60.171	54.856	108.85	859.67	0.27795	82.590	0.53091	0.012343	2.9706	0.33663	45.924	49.194	101.49	55.474	125.02	474.23	10.084	20.141	0.075057
582.84	9.8240	38.376	0.026058	24.973	25.229	60.315	54.847	109.41	854.90	0.28461	82.282	0.52933	0.012157	3.0120	0.33200	45.896	49.158	101.37	55.663	126.40	473.57	10.017	20.189	0.075624
583.66	9.9343	38.274	0.026127	25.056	25.315	60.458	54.839	109.98	850.15	0.29135	81.976	0.52776	0.011973	3.0537	0.32747	45.869	49.122	101.25	55.852	127.80	472.90	9.9512	20.238	0.076197
584.47	10.045	38.172	0.026197	25.138	25.401	60.600	54.832	110.55	845.42	0.29817	81.673	0.52620	0.011791	3.0957	0.32303	45.841	49.086	101.12	56.040	129.22	472.24	9.8862	20.286	0.076779
585.28	10.155	38.070	0.026267	25.220	25.487	60.741	54.826	111.14	840.70	0.30506	81.373	0.52465	0.011611	3.1379	0.31868	45.813	49.049	101.00	56.229	130.67	471.56	9.8220	20.335	0.077368
586.08	10.265	37.969	0.026338	25.302	25.572	60.882	54.820	111.74	835.99	0.31204	81.074	0.52310	0.011432	3.1804	0.31442	45.784	49.012	100.88	56.417	132.14	470.89	9.7586	20.384	0.077965
586.87	10.375	37.867	0.026408	25.383	25.657	61.021	54.816	112.35	831.31	0.31911	80.778	0.52156	0.011256	3.2232	0.31025	45.756	48.975	100.75	56.604	133.63	470.20	9.6959	20.433	0.078571
587.65	10.486	37.765	0.026479	25.463	25.741	61.160	54.813	112.96	826.63	0.32626	80.483	0.52004	0.011081	3.2663	0.30615	45.727	48.937	100.63	56.792	135.15	469.52	9.6340	20.483	0.079185
588.43	10.596	37.664	0.026551	25.544	25.825	61.298	54.810	113.59	821.97	0.33350	80.191	0.51851	0.010908	3.3098	0.30214	45.697	48.899	100.51	56.979	136.70	468.83	9.5728	20.532	0.079808
589.20	10.706	37.562	0.026623	25.624	25.909	61.435	54.809	114.23	817.32	0.34083	79.901	0.51700	0.010736	3.3535	0.29820	45.668	48.860	100.39	57.166	138.27	468.14	9.5123	20.582	0.080439
589.97	10.816	37.460	0.026695	25.703	25.992	61.571	54.808	114.88	812.69	0.34825	79.612	0.51550	0.010566	3.3975	0.29433	45.638	48.821	100.27	57.353	139.87	467.44	9.4525	20.632	0.081080
590.73	10.927	37.359	0.026767	25.783	26.075	61.707	54.808	115.54	808.06	0.35576	79.326	0.51400	0.010398	3.4419	0.29054	45.607	48.782	100.15	57.540	141.50	466.74	9.3933	20.682	0.081730
591.48	11.037	37.257	0.026840	25.862	26.158	61.842	54.810	116.22	803.45	0.36337	79.041	0.51251	0.010232	3.4866	0.28681	45.577	48.742	100.02	57.727	143.16	466.03	9.3348	20.732	0.082390
592.23	11.147	37.156	0.026914	25.940	26.240	61.976	54.812	116.90	798.86	0.37108	78.758	0.51103	0.010067	3.5316	0.28316	45.546	48.702	99.904	57.913	144.85	465.32	9.2769	20.783	0.083060
592.97	11.258	37.054	0.026988	26.019	26.322	62.110	54.815	117.60	794.27	0.37888	78.476	0.50956	0.0099037	3.5769	0.27957	45.514	48.662	99.783	58.100	146.56	464.61	9.2196	20.834	0.083740
593.71	11.368	36.952	0.027062	26.097	26.404	62.243	54.820	118.31	789.69	0.38679	78.196	0.50809	0.0097421	3.6226	0.27604	45.483	48.621	99.663	58.286	148.31	463.89	9.1629	20.885	0.084431
594.44	11.478	36.851	0.027137	26.175	26.486	62.375	54.825	119.04	785.13	0.39480	77.917	0.50663	0.0095820	3.6687	0.27258	45.451	48.580	99.543	58.473	150.10	463.16	9.1068	20.936	0.085132
595.16	11.588	36.749	0.027212	26.252	26.567	62.507	54.831	119.78	780.57	0.40292	77.640	0.50518	0.0094234	3.7150	0.26918	45.419	48.538	99.422	58.659	151.92	462.44	9.0512	20.988	0.085844
595.88	11.699	36.647	0.027287	26.329	26.648	62.638	54.838	120.53	776.03	0.41115	77.364	0.50374	0.0092663	3.7618	0.26583	45.386	48.496	99.302	58.846	153.77	461.70	8.9962	21.040	0.086568
596.60	11.809	36.545	0.027364	26.406	26.729	62.769	54.846	121.30	771.49	0.41949	77.090	0.50231	0.0091108	3.8089	0.26254	45.353	48.454	99.182	59.032	155.66	460.97	8.9417	21.092	0.087303
597.31	11.919	36.443	0.027440	26.483	26.810	62.899	54.856	122.08	766.97	0.42795	76.817	0.50089	0.0089567	3.8564	0.25931	45.320	48.411	99.062	59.219	157.58	460.23	8.8877	21.144	0.088050
598.01	12.029	36.341	0.027517	26.559	26.890	63.029	54.866	122.88	762.45	0.43652	76.545	0.49947	0.0088041	3.9043	0.25613	45.286	48.367	98.943	59.405	159.55	459.48	8.8342	21.197	0.088809
598.71	12.140	36.238	0.027595	26.636	26.971	63.158	54.877	123.70	757.94	0.44522	76.274	0.49806	0.0086530	3.9525	0.25300	45.252	48.324	98.823	59.592	161.55	458.73	8.7811	21.250	0.089581
599.41	12.250	36.136	0.027673	26.712	27.051	63.286	54.890	124.53	753.43	0.45403	76.004	0.49666	0.0085033	4.0012	0.24993	45.218	48.280	98.703	59.778	163.60	457.98	8.7286	21.304	0.090366
600.10	12.360	36.033	0.027752	26.788	27.131	63.414	54.903	125.38	748.94	0.46297	75.736	0.49527	0.0083550	4.0502	0.24690	45.184	48.235	98.583	59.965	165.69	457.22	8.6765	21.358	0.091164
600.78	12.471	35.931	0.027831	26.863	27.210	63.542	54.918	126.25	744.45	0.47204	75.468	0.49388	0.0082081	4.0997	0.24392	45.149	48.190	98.463	60.152	167.82	456.46	8.6248	21.412	0.091976
601.46	12.581	35.828	0.027911	26.939	27.290	63.669	54.934	127.14	739.97	0.48125	75.202	0.49250	0.0080625	4.1496	0.24099	45.113	48.145	98.343	60.339	170.00	455.69	8.5735	21.467	0.092801
602.14	12.691	35.725	0.027992	27.014	27.369	63.796	54.951	128.05	735.49	0.49059	74.936	0.49113	0.0079184	4.1999	0.23810	45.078	48.099	98.224	60.527	172.23	454.92	8.5227	21.522	0.093641
602.81	12.801	35.622	0.028073	27.089	27.448	63.922	54.969	128.98	731.02	0.50006	74.671	0.48977	0.0077756	4.2507	0.23526	45.042	48.053	98.104	60.714	174.51	454.14	8.4722	21.577	0.094496
603.47	12.912	35.518	0.028155	27.164	27.527	64.048	54.988	129.93	726.55	0.50969	74.407	0.48842	0.0076341	4.3019	0.23246	45.005	48.007	97.984	60.902	176.83	453.36	8.4222	21.633	0.095365
604.13	13.022	35.414	0.028237	27.238	27.606	64.173	55.009	130.90	722.09	0.51945	74.144	0.48707	0.0074939	4.3535	0.22970	44.968	47.960	97.863	61.090	179.21	452.57	8.3725	21.690	0.096251
604.79	13.132	35.310	0.028320	27.313	27.685	64.298	55.030	131.89	717.63	0.52937	73.881	0.48573	0.0073551	4.4056	0.22698	44.931	47.912	97.743	61.278	181.65	451.78	8.3232	21.746	0.097152
605.44	13.242	35.206	0.028404	27.387	27.764	64.423	55.053	132.91	713.17	0.53945	73.620	0.48439	0.0072176	4.4582	0.22431	44.894	47.864	97.623	61.467	184.14	450.98	8.2743	21.804	0.098069
606.09	13.353	35.102	0.028488	27.462	27.842	64.548	55.078	133.96	708.71	0.54968	73.358	0.48307	0.0070813	4.5113	0.22167	44.856	47.816	97.502	61.656	186.68	450.18	8.2257	21.861	0.099004
606.74	13.463	34.997	0.028574	27.536	27.920	64.672	55.103	135.02	704.26	0.56008	73.098	0.48175	0.0069463	4.5648	0.21907	44.817	47.767	97.382	61.845	189.30	449.37	8.1774	21.920	0.099956
607.38	13.573	34.892	0.028660	27.610	27.999	64.796	55.130	136.12	699.81	0.57065	72.838	0.48043	0.0068126	4.6189	0.21650	44.779	47.717	97.261	62.035	191.97	448.56	8.1294	21.978	0.10093
608.01	13.683	34.787	0.028746	27.684	28.077	64.919	55.158	137.24	695.36	0.58139	72.578	0.47913	0.0066802	4.6735	0.21397	44.740	47.668	97.140	62.225	194.71	447.74	8.0818	22.038	0.10191
608.65	13.794	34.681	0.028834	27.757	28.155	65.042	55.188	138.40	690.91	0.59231	72.319	0.47783	0.0065489	4.7286	0.21148	44.700	47.617	97.018	62.416	197.52	446.92	8.0344	22.098	0.10292
609.27	13.904	34.575	0.028922	27.831	28.233	65.165	55.219	139.58	686.46	0.60342	72.060	0.47653	0.0064190	4.7842	0.20902	44.660	47.566	96.897	62.607	200.39	446.09	7.9874	22.158	0.10395
609.90	14.014	34.469	0.029012	27.905	28.311	65.288	55.252	140.80	682.01	0.61471	71.802	0.47525	0.0062902	4.8404	0.20660	44.620	47.515	96.775	62.799	203.35	445.25	7.9406	22.219	0.10499
610.52	14.125	34.362	0.029102	27.978	28.389	65.411	55.286	142.05	677.55	0.62620	71.544	0.47397	0.0061626	4.8971	0.20420	44.579	47.463	96.653	62.991	206.38	444.41	7.8941	22.281	0.10606
611.13	14.235	34.255	0.029192	28.052	28.467	65.533	55.322	143.33	673.09	0.63790	71.286	0.47269	0.0060363	4.9544	0.20184	44.538	47.411	96.530	63.184	209.49	443.57	7.8478	22.343	0.10715
611.75	14.345	34.148	0.029284	28.125	28.545	65.655	55.360	144.65	668.63	0.64980	71.028	0.47142	0.0059111	5.0123	0.19951	44.496	47.358	96.408	63.377	212.68	442.71	7.8018	22.406	0.10825
612.35	14.455	34.040	0.029377	28.199	28.623	65.777	55.399	146.01	664.16	0.66193	70.771	0.47016	0.0057871	5.0709	0.19721	44.454	47.304	96.285	63.571	215.97	441.86	7.7561	22.469	0.10939
612.96	14.566	33.932	0.029471	28.272	28.701	65.899	55.440	147.41	659.69	0.67427	70.513	0.46890	0.0056643	5.1300	0.19493	44.411	47.251	96.161	63.766	219.34	440.99	7.7106	22.534	0.11054
613.56	14.676	33.823	0.029566	28.345	28.779	66.021	55.482	148.86	655.21	0.68685	70.256	0.46765	0.0055426	5.1897	0.19269	44.368	47.196	96.038	63.962	222.81	440.12	7.6653	22.598	0.11172
614.16	14.786	33.714	0.029662	28.418	28.857	66.143	55.527	150.35	650.72	0.69966	69.998	0.46641	0.0054221	5.2501	0.19047	44.325	47.141	95.913	64.158	226.38	439.25	7.6202	22.664	0.11292
614.75	14.896	33.604	0.029758	28.492	28.935	66.264	55.573	151.88	646.23	0.71273	69.741	0.46517	0.0053028	5.3112	0.18828	44.281	47.085	95.789	64.355	230.05	438.36	7.5753	22.730	0.11415
615.34	15.007	33.494	0.029856	28.565	29.013	66.386	55.622	153.47	641.72	0.72605	69.483	0.46393	0.0051845	5.3730	0.18612	44.236	47.029	95.664	64.553	233.83	437.47	7.5306	22.798	0.11541
615.93	15.117	33.383	0.029956	28.638	29.091	66.507	55.672	155.10	637.21	0.73963	69.225	0.46270	0.0050675	5.4354	0.18398	44.191	46.972	95.538	64.752	237.72	436.57	7.4861	22.866	0.11669
616.51	15.227	33.271	0.030056	28.711	29.169	66.629	55.725	156.79	632.68	0.75349	68.967	0.46148	0.0049515	5.4986	0.18187	44.145	46.915	95.412	64.952	241.74	435.67	7.4417	22.934	0.11800
617.09	15.338	33.159	0.030157	28.785	29.247	66.750	55.780	158.54	628.14	0.76764	68.709	0.46026	0.0048367	5.5625	0.17978	44.099	46.857	95.286	65.153	245.88	434.76	7.3976	23.004	0.11933
617.67	15.448	33.047	0.030260	28.858	29.326	66.871	55.837	160.36	623.59	0.78208	68.450	0.45904	0.0047229	5.6271	0.17771	44.053	46.798	95.159	65.355	250.15	433.84	7.3536	23.075	0.12070
618.24	15.558	32.933	0.030364	28.932	29.404	66.993	55.897	162.23	619.02	0.79683	68.191	0.45783	0.0046103	5.6925	0.17567	44.005	46.738	95.031	65.558	254.57	432.91	7.3097	23.146	0.12210
618.81	15.668	32.819	0.030470	29.005	29.483	67.114	55.960	164.18	614.44	0.81190	67.931	0.45663	0.0044988	5.7588	0.17365	43.958	46.678	94.903	65.762	259.12	431.98	7.2660	23.219	0.12353
619.38	15.779	32.704	0.030577	29.079	29.561	67.236	56.025	166.20	609.84	0.82729	67.671	0.45543	0.0043884	5.8258	0.17165	43.909	46.618	94.774	65.968	263.83	431.04	7.2224	23.292	0.12500
619.94	15.889	32.589	0.030685	29.152	29.640	67.358	56.092	168.29	605.22	0.84304	67.410	0.45423	0.0042791	5.8937	0.16967	43.860	46.556	94.645	66.175	268.71	430.09	7.1789	23.366	0.12649
620.50	15.999	32.473	0.030795	29.226	29.719	67.480	56.163	170.47	600.58	0.85913	67.148	0.45304	0.0041708	5.9624	0.16772	43.811	46.494	94.514	66.384	273.75	429.13	7.1355	23.442	0.12803
621.06	16.109	32.356	0.030907	29.300	29.798	67.602	56.237	172.73	595.92	0.87560	66.885	0.45185	0.0040637	6.0321	0.16578	43.761	46.431	94.383	66.594	278.97	428.16	7.0922	23.518	0.12960
621.61	16.220	32.238	0.031020	29.374	29.877	67.724	56.314	175.08	591.24	0.89245	66.622	0.45067	0.0039576	6.1027	0.16386	43.710	46.368	94.252	66.805	284.39	427.19	7.0490	23.596	0.13121
622.16	16.330	32.119	0.031135	29.449	29.957	67.846	56.395	177.54	586.54	0.90971	66.358	0.44949	0.0038526	6.1742	0.16196	43.658	46.303	94.119	67.018	290.00	426.20	7.0059	23.675	0.13286
622.71	16.440	31.999	0.031251	29.523	30.037	67.969	56.479	180.09	581.81	0.92737	66.092	0.44832	0.0037487	6.2467	0.16008	43.606	46.238	93.986	67.233	295.83	425.21	6.9629	23.755	0.13455
623.25	16.551	31.878	0.031370	29.598	30.117	68.092	56.567	182.76	577.06	0.94547	65.825	0.44715	0.0036458	6.3202	0.15822	43.553	46.172	93.852	67.450	301.88	424.20	6.9199	23.836	0.13628
623.80	16.661	31.756	0.031490	29.673	30.197	68.215	56.659	185.55	572.28	0.96402	65.558	0.44598	0.0035440	6.3948	0.15638	43.500	46.105	93.717	67.669	308.18	423.19	6.8770	23.919	0.13806
624.33	16.771	31.633	0.031613	29.748	30.278	68.339	56.755	188.46	567.48	0.98303	65.288	0.44482	0.0034433	6.4704	0.15455	43.445	46.037	93.581	67.890	314.73	422.16	6.8341	24.002	0.13989
624.87	16.881	31.509	0.031737	29.823	30.359	68.463	56.855	191.51	562.64	1.0025	65.018	0.44366	0.0033436	6.5472	0.15274	43.390	45.969	93.444	68.113	321.55	421.12	6.7912	24.088	0.14176
625.40	16.992	31.384	0.031864	29.899	30.440	68.587	56.960	194.69	557.77	1.0225	64.745	0.44251	0.0032450	6.6251	0.15094	43.334	45.899	93.306	68.338	328.67	420.07	6.7484	24.175	0.14369
625.93	17.102	31.257	0.031993	29.975	30.522	68.712	57.071	198.04	552.88	1.0431	64.471	0.44136	0.0031474	6.7042	0.14916	43.278	45.829	93.167	68.566	336.09	419.01	6.7055	24.263	0.14567
626.46	17.212	31.129	0.032124	30.051	30.604	68.837	57.186	201.54	547.95	1.0641	64.196	0.44022	0.0030509	6.7846	0.14739	43.220	45.757	93.027	68.797	343.84	417.94	6.6626	24.353	0.14770
626.98	17.322	31.000	0.032258	30.127	30.686	68.963	57.307	205.23	542.99	1.0858	63.918	0.43908	0.0029554	6.8662	0.14564	43.162	45.685	92.885	69.030	351.95	416.86	6.6198	24.444	0.14980
627.50	17.433	30.869	0.032395	30.204	30.769	69.090	57.435	209.10	537.99	1.1080	63.638	0.43794	0.0028610	6.9492	0.14390	43.103	45.611	92.743	69.266	360.44	415.76	6.5768	24.537	0.15195
628.02	17.543	30.737	0.032534	30.282	30.853	69.217	57.568	213.17	532.96	1.1308	63.356	0.43682	0.0027676	7.0336	0.14218	43.043	45.537	92.599	69.506	369.34	414.65	6.5338	24.632	0.15418
628.54	17.653	30.603	0.032677	30.360	30.936	69.345	57.708	217.45	527.89	1.1542	63.072	0.43569	0.0026753	7.1194	0.14046	42.982	45.461	92.453	69.749	378.68	413.52	6.4908	24.729	0.15647
629.05	17.763	30.467	0.032822	30.438	31.021	69.473	57.856	221.97	522.79	1.1783	62.786	0.43458	0.0025841	7.2067	0.13876	42.919	45.384	92.307	69.995	388.49	412.38	6.4476	24.828	0.15883
629.56	17.874	30.330	0.032970	30.517	31.106	69.603	58.011	226.74	517.66	1.2031	62.496	0.43346	0.0024939	7.2956	0.13707	42.856	45.306	92.159	70.245	398.82	411.22	6.4044	24.929	0.16127
630.07	17.984	30.191	0.033122	30.596	31.192	69.733	58.174	231.78	512.48	1.2286	62.204	0.43236	0.0024048	7.3862	0.13539	42.792	45.227	92.009	70.499	409.71	410.05	6.3610	25.032	0.16379
630.57	18.094	30.050	0.033277	30.676	31.278	69.864	58.346	237.11	507.28	1.2548	61.910	0.43126	0.0023167	7.4784	0.13372	42.727	45.146	91.857	70.758	421.20	408.86	6.3175	25.137	0.16639
631.08	18.205	29.907	0.033436	30.756	31.365	69.996	58.528	242.74	502.03	1.2817	61.612	0.43017	0.0022297	7.5725	0.13206	42.660	45.064	91.704	71.022	433.35	407.65	6.2738	25.245	0.16909
631.58	18.315	29.762	0.033599	30.837	31.452	70.129	58.719	248.72	496.75	1.3094	61.311	0.42909	0.0021437	7.6684	0.13041	42.592	44.981	91.549	71.290	446.22	406.42	6.2300	25.355	0.17189
632.07	18.425	29.615	0.033766	30.919	31.541	70.263	58.920	255.05	491.44	1.3379	61.006	0.42802	0.0020589	7.7663	0.12876	42.523	44.896	91.392	71.564	459.87	405.17	6.1860	25.468	0.17478
632.57	18.535	29.466	0.033938	31.001	31.630	70.398	59.133	261.78	486.10	1.3672	60.699	0.42696	0.0019751	7.8663	0.12712	42.453	44.809	91.233	71.843	474.39	403.90	6.1417	25.584	0.17779
633.06	18.646	29.314	0.034113	31.084	31.720	70.535	59.358	268.94	480.73	1.3973	60.387	0.42591	0.0018923	7.9685	0.12549	42.381	44.721	91.072	72.129	489.86	402.61	6.0971	25.702	0.18092
633.55	18.756	29.160	0.034294	31.168	31.811	70.672	59.595	276.55	475.33	1.4283	60.072	0.42488	0.0018107	8.0729	0.12387	42.308	44.631	90.908	72.422	506.38	401.29	6.0523	25.824	0.18417
634.04	18.866	29.003	0.034479	31.253	31.903	70.811	59.845	284.67	469.91	1.4602	59.752	0.42386	0.0017302	8.1798	0.12225	42.233	44.540	90.742	72.722	524.06	399.95	6.0072	25.948	0.18757
634.52	18.976	28.843	0.034670	31.338	31.996	70.952	60.110	293.34	464.47	1.4929	59.428	0.42286	0.0016508	8.2893	0.12064	42.157	44.446	90.573	73.030	543.03	398.58	5.9616	26.077	0.19111
635.00	19.087	28.681	0.034866	31.424	32.090	71.094	60.389	302.61	459.01	1.5266	59.100	0.42189	0.0015724	8.4015	0.11903	42.079	44.350	90.402	73.347	563.45	397.18	5.9157	26.209	0.19481
635.48	19.197	28.516	0.035068	31.512	32.185	71.237	60.684	312.54	453.54	1.5613	58.767	0.42094	0.0014953	8.5166	0.11742	41.998	44.253	90.227	73.673	585.48	395.75	5.8694	26.344	0.19869
635.96	19.307	28.348	0.035276	31.600	32.281	71.383	60.995	323.21	448.06	1.5969	58.430	0.42002	0.0014192	8.6348	0.11581	41.916	44.152	90.049	74.010	609.34	394.29	5.8226	26.485	0.20275
636.43	19.418	28.176	0.035491	31.690	32.379	71.530	61.324	334.70	442.58	1.6335	58.087	0.41913	0.0013443	8.7563	0.11420	41.832	44.050	89.868	74.358	635.26	392.79	5.7752	26.629	0.20703
636.90	19.528	28.001	0.035713	31.780	32.477	71.679	61.671	347.11	437.10	1.6711	57.739	0.41830	0.0012706	8.8813	0.11260	41.746	43.945	89.683	74.718	663.53	391.25	5.7273	26.779	0.21154
637.37	19.638	27.823	0.035942	31.872	32.578	71.830	62.036	360.57	431.62	1.7098	57.385	0.41751	0.0011980	9.0102	0.11099	41.657	43.837	89.494	75.093	694.48	389.67	5.6787	26.933	0.21631
637.84	19.748	27.641	0.036179	31.965	32.679	71.983	62.422	375.23	426.16	1.7496	57.026	0.41680	0.0011266	9.1432	0.10937	41.566	43.725	89.301	75.482	728.52	388.04	5.6293	27.094	0.22136
638.31	19.859	27.454	0.036424	32.059	32.783	72.139	62.827	391.28	420.70	1.7907	56.660	0.41617	0.0010565	9.2806	0.10775	41.471	43.611	89.103	75.889	766.14	386.36	5.5792	27.260	0.22673
638.77	19.969	27.264	0.036678	32.155	32.888	72.297	63.255	408.97	415.26	1.8330	56.287	0.41564	0.00098761	9.4229	0.10612	41.374	43.493	88.900	76.316	807.94	384.63	5.5281	27.434	0.23245
639.23	20.079	27.069	0.036942	32.253	32.995	72.458	63.705	428.61	409.82	1.8767	55.907	0.41524	0.00091998	9.5705	0.10449	41.273	43.371	88.691	76.763	854.67	382.83	5.4760	27.614	0.23858
639.69	20.189	26.869	0.037217	32.352	33.104	72.622	64.180	450.60	404.39	1.9221	55.519	0.41499	0.00085365	9.7239	0.10284	41.169	43.245	88.476	77.236	907.24	380.97	5.4228	27.803	0.24518
640.14	20.300	26.664	0.037504	32.454	33.215	72.790	64.680	475.48	398.96	1.9691	55.122	0.41493	0.00078865	9.8838	0.10118	41.060	43.114	88.254	77.736	966.82	379.02	5.3683	28.001	0.25230
640.59	20.410	26.452	0.037804	32.558	33.329	72.961	65.210	503.95	393.50	2.0182	54.714	0.41512	0.00072501	10.051	0.099495	40.948	42.978	88.024	78.268	1034.9	376.99	5.3123	28.209	0.26004
641.05	20.520	26.234	0.038119	32.664	33.446	73.137	65.773	536.95	387.99	2.0696	54.295	0.41560	0.00066278	10.226	0.097792	40.830	42.836	87.786	78.836	1113.4	374.86	5.2547	28.428	0.26849
641.49	20.630	26.007	0.038451	32.773	33.567	73.319	66.375	575.75	382.40	2.1238	53.863	0.41645	0.00060200	10.410	0.096064	40.706	42.688	87.538	79.447	1204.9	372.62	5.1952	28.660	0.27781
641.94	20.741	25.771	0.038803	32.886	33.691	73.506	67.024	622.15	376.69	2.1812	53.414	0.41778	0.00054273	10.604	0.094304	40.576	42.532	87.278	80.108	1312.9	370.24	5.1336	28.906	0.28814
642.38	20.851	25.524	0.039179	33.004	33.821	73.701	67.731	678.65	370.81	2.2424	52.946	0.41970	0.00048502	10.810	0.092507	40.439	42.368	87.007	80.829	1442.1	367.71	5.0696	29.170	0.29971
642.82	20.961	25.263	0.039583	33.126	33.956	73.905	68.513	748.92	364.67	2.3083	52.454	0.42239	0.00042894	11.030	0.090665	40.294	42.194	86.720	81.620	1599.2	365.00	5.0027	29.452	0.31282
643.26	21.072	24.986	0.040023	33.255	34.098	74.119	69.395	838.45	358.18	2.3797	51.934	0.42610	0.00037459	11.265	0.088768	40.138	42.009	86.417	82.497	1794.0	362.06	4.9326	29.758	0.32787
643.70	21.182	24.688	0.040506	33.391	34.249	74.347	70.415	955.77	351.23	2.4580	51.377	0.43114	0.00032205	11.520	0.086804	39.971	41.810	86.093	83.481	2041.4	358.85	4.8585	30.092	0.34541
644.13	21.292	24.364	0.041045	33.538	34.412	74.593	71.628	1114.7	343.64	2.5446	50.775	0.43804	0.00027145	11.798	0.084757	39.790	41.595	85.744	84.598	2364.8	355.30	4.7799	30.460	0.36627
644.56	21.402	24.006	0.041657	33.697	34.589	74.860	73.119	1339.1	335.22	2.6417	50.114	0.44756	0.00022295	12.106	0.082606	39.592	41.360	85.365	85.890	2803.7	351.30	4.6957	30.870	0.39170
644.99	21.513	23.604	0.042366	33.873	34.785	75.157	75.024	1672.2	325.70	2.7517	49.376	0.46099	0.00017674	12.450	0.080319	39.372	41.100	84.947	87.413	3429.0	346.72	4.6047	31.336	0.42374
645.42	21.623	23.143	0.043210	34.072	35.006	75.493	77.556	2201.2	314.82	2.8779	48.535	0.48063	0.00013309	12.845	0.077850	39.122	40.806	84.479	89.264	4383.1	341.30	4.5052	31.877	0.46600
645.84	21.733	22.601	0.044246	34.301	35.263	75.883	81.068	3130.8	302.32	3.0235	48.237	0.51135	9.2399e-05	13.312	0.075123	38.832	40.465	83.938	91.615	5998.5	334.62	4.3944	32.525	0.52583
646.26	21.843	21.939	0.045580	34.578	35.574	76.356	86.207	5097.1	288.01	3.1920	47.650	0.56660	5.5308e-05	13.892	0.071982	38.479	40.051	83.284	94.852	9280.8	325.76	4.2674	34.089	0.62179
646.68	21.954	21.056	0.047492	34.944	35.986	76.987	94.772	11647.	271.29	3.3890	47.041	0.70538	2.3048e-05	14.706	0.068000	37.997	39.490	82.405	100.28	19426.	311.90	4.1106	36.071	0.82752
647.10	22.064	17.874	0.055948	36.314	37.548	79.393	undefined	undefined	undefined	3.7410	undefined	undefined	0.0000	17.874	0.055948	36.314	37.548	79.393	undefined	undefined	undefined	3.7410	undefined	undefined
